EESchema Schematic File Version 2
LIBS:snaiks
EELAYER 25 0
EELAYER END
$Descr A4 11693 8268
encoding utf-8
Sheet 5 6
Title "Inputs and Outputs"
Date "2017-04-16"
Rev ""
Comp ""
Comment1 "www.zeilhofer.co.at/snaiks"
Comment2 "Snaiks Kicad Library Presentation"
Comment3 ""
Comment4 ""
$EndDescr
$Comp
L AIN AIN?
U 1 1 58F34A65
P 3000 2200
F 0 "AIN?" H 2750 2350 60  0000 C CNN
F 1 "AIN" H 2700 2050 60  0000 C CNN
F 2 "" H 2500 1950 60  0000 C CNN
F 3 "" H 2500 1950 60  0000 C CNN
F 4 "0" H 2550 2200 60  0000 C CNN "InitValue"
	1    3000 2200
	1    0    0    -1  
$EndComp
$Comp
L AOUT AOUT?
U 1 1 58F34AB1
P 4550 2150
F 0 "AOUT?" H 4750 2300 60  0000 C CNN
F 1 "AOUT" H 4750 1950 60  0000 C CNN
F 2 "" H 4650 1900 60  0000 C CNN
F 3 "" H 4650 1900 60  0000 C CNN
	1    4550 2150
	1    0    0    -1  
$EndComp
$Comp
L DIN DIN?
U 1 1 58F34ADC
P 2850 3150
F 0 "DIN?" H 2600 3300 60  0000 C CNN
F 1 "DIN" H 2550 3000 60  0000 C CNN
F 2 "" H 2350 2900 60  0000 C CNN
F 3 "" H 2350 2900 60  0000 C CNN
F 4 "0" H 2400 3150 60  0000 C CNN "InitValue"
	1    2850 3150
	1    0    0    -1  
$EndComp
$Comp
L DOUT DOUT?
U 1 1 58F34B0B
P 4550 3400
F 0 "DOUT?" H 4750 3550 60  0000 C CNN
F 1 "DOUT" H 4750 3250 60  0000 C CNN
F 2 "" H 4650 3150 60  0000 C CNN
F 3 "" H 4650 3150 60  0000 C CNN
	1    4550 3400
	1    0    0    -1  
$EndComp
Text Notes 2400 1600 0    60   ~ 0
Signal Source
Text Notes 4550 1600 0    60   ~ 0
Signal Sink
Text Notes 1450 2300 0    60   ~ 0
Analog
Text Notes 1450 3400 0    60   ~ 0
Digital
$Comp
L L DIN?
U 1 1 58F34BE4
P 3350 3500
F 0 "DIN?" H 3350 3600 60  0001 C CNN
F 1 "L" H 3350 3400 60  0001 C CNN
F 2 "" H 2850 3250 60  0000 C CNN
F 3 "" H 2850 3250 60  0000 C CNN
F 4 "0" H 3200 3750 60  0001 C CNN "InitValue"
	1    3350 3500
	1    0    0    -1  
$EndComp
$Comp
L H DIN?
U 1 1 58F34C0B
P 3350 3350
F 0 "DIN?" H 3350 3450 60  0001 C CNN
F 1 "H" H 3350 3250 60  0001 C CNN
F 2 "" H 2850 3100 60  0000 C CNN
F 3 "" H 2850 3100 60  0000 C CNN
F 4 "1" H 3200 3600 60  0001 C CNN "InitValue"
	1    3350 3350
	1    0    0    -1  
$EndComp
Text Notes 3450 3350 0    60   ~ 0
High
Text Notes 3450 3550 0    60   ~ 0
Low
Wire Notes Line
	1950 1700 1950 4050
Wire Notes Line
	1950 4050 5650 4050
Wire Notes Line
	5650 4050 5650 1700
Wire Notes Line
	5650 1700 1950 1700
Wire Notes Line
	1950 2750 5650 2750
Wire Notes Line
	3800 1700 3800 4050
$Comp
L GND AIN?
U 1 1 58F355FF
P 3350 2250
F 0 "AIN?" H 3350 2350 60  0001 C CNN
F 1 "GND" H 3350 2150 60  0001 C CNN
F 2 "" H 2850 2000 60  0000 C CNN
F 3 "" H 2850 2000 60  0000 C CNN
F 4 "0" H 3200 2500 60  0001 C CNN "InitValue"
	1    3350 2250
	1    0    0    -1  
$EndComp
Text Notes 3450 2300 0    60   ~ 0
GND
$Comp
L TRIG TRIG?
U 1 1 58F3B826
P 2850 3700
F 0 "TRIG?" H 2600 3850 60  0000 C CNN
F 1 "TRIG" H 2550 3550 60  0000 C CNN
F 2 "" H 2350 3450 60  0000 C CNN
F 3 "" H 2350 3450 60  0000 C CNN
	1    2850 3700
	1    0    0    -1  
$EndComp
$EndSCHEMATC
